<svg xmlns="http://www.w3.org/2000/svg" viewBox="0 0 30 30">
  <defs>
    <style>
      .cls-1 {
        fill: none;
        stroke: #fff;
        stroke-width: 5px;
      }
    </style>
  </defs>
  <g id="Groupe_314" data-name="Groupe 314" transform="translate(-48.5 -107.5)">
    <line id="Ligne_9" data-name="Ligne 9" class="cls-1" y2="30" transform="translate(63.5 107.5)"/>
    <line id="Ligne_10" data-name="Ligne 10" class="cls-1" x2="30" transform="translate(48.5 122.5)"/>
  </g>
</svg>
